<svg xmlns="http://www.w3.org/2000/svg" xmlns:xlink="http://www.w3.org/1999/xlink" class="chevron-thin-left" viewBox="0 0 32 68.292" enable-background="new 0 0 32 68.292" xml:space="preserve">
<polygon fill="#fff" points="30.396,68.292 0,34.146 30.396,0 32.001,1.429 2.876,34.146 32.001,66.865 "/>
</svg>
