<?xml version="1.0" encoding="utf-8"?>
<!-- Generator: Adobe Illustrator 17.0.0, SVG Export Plug-In . SVG Version: 6.00 Build 0)  -->
<!DOCTYPE svg PUBLIC "-//W3C//DTD SVG 1.1//EN" "http://www.w3.org/Graphics/SVG/1.1/DTD/svg11.dtd">
<svg version="1.1" id="Layer_1" xmlns="http://www.w3.org/2000/svg" xmlns:xlink="http://www.w3.org/1999/xlink" x="0px" y="0px"
	 width="432px" height="214.665px" viewBox="0 108.678 432 214.665" enable-background="new 0 108.678 432 214.665"
	 xml:space="preserve">
<title>mac logo</title>
<path d="M112.961,323.107H109.8v-18.733h4.937l5.659,11.708l5.659-11.708h4.878v18.733h-3.161v-14.635l-6.537,12.996h-1.776
	l-6.517-12.996L112.961,323.107z"/>
<path d="M144.163,318.853l-1.951,4.254h-3.317l8.254-18.733h3.376l8.254,18.733h-3.376l-1.951-4.254H144.163z M152.261,315.926
	l-3.395-7.805l-3.395,7.805H152.261z"/>
<path d="M181.686,310.463c0.29,2.683-1.428,5.173-4.039,5.854l4.898,6.81h-4.02l-4.468-6.303H169.9v6.303h-3.161v-18.733h6.927
	c2.144-0.185,4.291,0.321,6.127,1.444C181.126,306.99,181.829,308.708,181.686,310.463z M177.569,313.117
	c0.701-0.704,1.051-1.684,0.956-2.673c0.114-0.953-0.261-1.899-0.995-2.517c-1.091-0.551-2.314-0.787-3.532-0.683H169.9v6.693h3.903
	C175.115,314.096,176.442,313.807,177.569,313.117z"/>
<path d="M191.618,304.375h3.161v9.191l8.566-9.132h4.02l-7.532,8.195l7.63,10.537h-3.747l-6.225-8.195l-2.732,2.946v5.249h-3.142
	V304.375z"/>
<path d="M228.986,304.375v2.966h-9.991v4.956h8.976v2.81h-8.976v5.015h10.322v2.966h-13.484v-18.733L228.986,304.375z"/>
<path d="M245.865,307.282v15.845h-3.161v-15.845h-5.678v-2.888h14.518v2.888H245.865z"/>
<path d="M260.265,304.375h3.161v18.733h-3.161V304.375z"/>
<path d="M288.033,304.375h3.161v18.733h-3.434l-10.615-13.659v13.659h-3.161v-18.733h3.103l10.888,13.991L288.033,304.375z"/>
<path d="M314.726,313.995h3.161v6.4c-1.992,2.045-4.781,3.115-7.63,2.927c-2.59,0.068-5.097-0.918-6.947-2.732
	c-3.765-3.858-3.765-10.016,0-13.874c1.828-1.83,4.322-2.837,6.908-2.79c2.462-0.091,4.867,0.752,6.732,2.361l-1.698,2.42
	c-0.642-0.576-1.392-1.02-2.205-1.307c-0.84-0.258-1.716-0.384-2.595-0.371c-1.768-0.046-3.481,0.614-4.761,1.834
	c-2.673,2.475-2.833,6.648-0.358,9.32c1.25,1.35,3.007,2.116,4.846,2.114c1.57,0.058,3.122-0.342,4.468-1.151L314.726,313.995z"/>
<path d="M429.093,213.19L432,245.816c-15.376,10.186-31.592,12.879-53.817,12.879c-44.47,0-72.198-33.66-72.198-75.008
	s27.689-75.008,72.198-75.008c21.464,0,40.724,2.068,53.817,12.684l-2.907,32.606h-3.532c-11.708-28.06-23.689-41.758-47.378-41.758
	c-23.045,0-34.753,14.537-34.753,71.476s12.254,71.476,34.694,71.476c24.938,0,41.973-19.318,47.378-41.973L429.093,213.19z"/>
<path d="M291.194,238.128c0,0-1.951-5.405-52.685-127.576h-3.532l-12.527,41.056l24.43,60.1h-30.284v3.903h31.67l0.117,0.312
	l6.225,15.162c0,0,10.81,22.225-5.405,22.225v3.532h59.417v-3.532C303.253,252.88,298.257,254.753,291.194,238.128z"/>
<path d="M136.728,253.309v3.532h44.88v-74.989l0,0v-49.485c0-12.684,7.064-18.284,16.001-18.284v-3.454h-45.914L110.132,216
	L60.061,110.629H7.688v3.454c5.19,0.41,15.61,0.41,23.416,14.342v75.867c0,0,0.117,49.017-31.104,49.017v3.532h62.969v-3.532
	c-28.684,0-28.274-49.017-28.274-49.017v-70.247l58.188,124.65h3.532l55.281-138.309V231.61
	C151.695,245.816,145.45,253.309,136.728,253.309z"/>
</svg>
